<svg xmlns="http://www.w3.org/2000/svg" xmlns:xlink="http://www.w3.org/1999/xlink" width="94" height="56" viewBox="0 0 94 56">
  <defs>
    <rect id="rect-1" width="94" height="56" x="0" y="0"/>
    <mask id="mask-2" maskContentUnits="userSpaceOnUse" maskUnits="userSpaceOnUse">
      <rect width="94" height="56" x="0" y="0" fill="black"/>
      <use fill="white" xlink:href="#rect-1"/>
    </mask>
  </defs>
  <g transform="rotate(-179.999936 47 28)">
    <use fill="none" xlink:href="#rect-1"/>
    <g mask="url(#mask-2)">
      <rect width="3" height="86.034" x="15.017" y="-7.834" fill="rgb(204,203,201)" transform="rotate(-22.99988 16.51667694 35.18327163)"/>
      <rect width="3" height="81" x="0" y="-3" fill="rgb(204,203,201)" transform="rotate(-22.99988 1.5 37.5)"/>
      <rect width="3" height="87.12" x="30.804" y="-8.877" fill="rgb(204,203,201)" transform="rotate(-22.99988 32.30436975 34.68327164)"/>
      <rect width="3" height="87.12" x="62.804" y="-8.877" fill="rgb(204,203,201)" transform="rotate(-22.99988 64.30436974 34.68327163)"/>
      <rect width="3" height="87.12" x="46.804" y="-8.877" fill="rgb(204,203,201)" transform="rotate(-22.99988 48.30429995 34.68327163)"/>
      <rect width="3" height="87.12" x="78.804" y="-8.877" fill="rgb(204,203,201)" transform="rotate(-22.99988 80.30429995 34.68327163)"/>
      <rect width="3" height="88.206" x="110.592" y="-9.92" fill="rgb(204,203,201)" transform="rotate(-22.99988 112.09213228 34.18327151)"/>
      <rect width="3" height="88.206" x="94.592" y="-9.92" fill="rgb(204,203,201)" transform="rotate(-22.99988 96.09206254 34.18327163)"/>
      <rect width="3" height="88.206" x="126.592" y="-9.92" fill="rgb(204,203,201)" transform="rotate(-22.99988 128.09206322 34.18327323)"/>
      <rect width="3" height="88.206" x="158.592" y="-9.92" fill="rgb(204,203,201)" transform="rotate(-22.99988 160.09206254 34.18327163)"/>
      <rect width="3" height="88.206" x="142.592" y="-9.92" fill="rgb(204,203,201)" transform="rotate(-22.99988 144.09199276 34.18327164)"/>
      <rect width="3" height="88.206" x="174.592" y="-9.92" fill="rgb(204,203,201)" transform="rotate(-22.99988 176.09199275 34.18327163)"/>
      <rect width="3" height="88.206" x="190.592" y="-9.92" fill="rgb(204,203,201)" transform="rotate(-22.99988 192.09206254 34.18327163)"/>
    </g>
  </g>
</svg>
